{
  "version":1,
  "schema": [{
    "db": "prototype.Product",
    "text": "Entry1",
    "type": "Model",
    "nodes":[
      {
        "text": "Entry1.1",
        "type": "NullBooleanField [boolean]",
        "db": "entry11"
      },
      {
        "text": "Entry1.2",
        "type": "Text",
        "db":"entry12"
      },
      {
        "text": "Entry1.3",
        "type": "DateTimeField [date]",
        "db":"entry13"
      },
      {
        "text": "Repetitive entry  2 [repetitive]",
        "type": "Model",
        "db": "repetiveEntry2",
        "nodes": [
          {
            "text": "Entry2.1",
            "type": "Text",
            "db": "entry21"
          },
          {
            "text": "Entry2.2",
            "type": "Text",
            "db": "entry22"
          }
        ]
      }
    ]
  }]
}